<?xml version="1.0" encoding="UTF-8"?>
<Project>
   <description></description>
   <name>Katalon-Reqres-API-Pipeline</name>
   <tag></tag>
   <UUID>30f4b3df-c714-4e69-8a91-44fe1954b3ac</UUID>
   <createdEdition>ENTERPRISE</createdEdition>
   <createdVersion>9.3.2</createdVersion>
   <freeLicense>false</freeLicense>
   <migratedVersion>5.9.0</migratedVersion>
   <modifiedEdition>ENTERPRISE</modifiedEdition>
   <modifiedVersion>9.3.2</modifiedVersion>
   <pageLoadTimeout>0</pageLoadTimeout>
   <projectFileLocation>C:\Working\other\Katalon-Reqres-API-Pipeline\Katalon-Reqres-API-Pipeline.prj</projectFileLocation>
   <sourceContent>
      <sourceFolderList>
         <sourceFolderConfiguration>
            <url>Include/scripts/groovy</url>
         </sourceFolderConfiguration>
      </sourceFolderList>
      <systemFolderList>
         <systemFolderConfiguration>
            <url>Include/scripts/groovy</url>
         </systemFolderConfiguration>
         <systemFolderConfiguration>
            <url>Include/features</url>
         </systemFolderConfiguration>
         <systemFolderConfiguration>
            <url>Include/config</url>
         </systemFolderConfiguration>
      </systemFolderList>
   </sourceContent>
   <timeStampInProperties>false</timeStampInProperties>
   <type>WEBSERVICE</type>
</Project>
